{
    "chat_history": [
        {
            "time": 11,
            "message": "This is a test message 1"
        },
        {
            "time": 12,
            "message": "This is a test message 2"
        },
        {
            "time": 13,
            "message": "This is a test message 3"
        }
    ]
}